<?xml version="1.0" encoding="utf-8"?>
<!-- Generator: Adobe Illustrator 16.0.0, SVG Export Plug-In . SVG Version: 6.00 Build 0)  -->
<!DOCTYPE svg PUBLIC "-//W3C//DTD SVG 1.1//EN" "http://www.w3.org/Graphics/SVG/1.1/DTD/svg11.dtd">
<svg version="1.1" id="Layer_1" xmlns="http://www.w3.org/2000/svg" xmlns:xlink="http://www.w3.org/1999/xlink" x="0px" y="0px"
	 width="800px" height="800px" viewBox="0 0 800 800" enable-background="new 0 0 800 800" xml:space="preserve">
<g>
	<defs>
		<rect id="SVGID_1_" width="800" height="800"/>
	</defs>
	<clipPath id="SVGID_2_">
		<use xlink:href="#SVGID_1_"  overflow="visible"/>
	</clipPath>
	<g id="Digital_nomad_lifestyle" clip-path="url(#SVGID_2_)">
		<rect fill="#FFFFFF" width="800" height="800"/>
		<g id="Digital_nomad_lifestyle-2" transform="translate(-983.803 0.299)">
			<g id="BG">
				<path id="bg-white" fill="#FFFFFF" d="M983.803-0.299h800v800h-800V-0.299z"/>
				<path id="Path_541" fill="#EDF2F9" d="M1264.375,635.373c252.1,52.454,265.767-13.546,364.436-16.546
					c69.935-2.126,124.955,15.896,154.992,38.658V507.164c-20.854-49.837-26.918-113.682-87.648-142.841
					c-73.93-35.5-122.742-24.745-158.399-49.657c-29.629-20.7-38.9-64.983-48.8-97.341c-12.044-39.338-25.791-74.015-63.97-94.826
					c-53.521-29.175-143.214-38.868-189.847,7.673c-22.015,21.972-37.186,50.275-50.455,78.09
					c-22.6,47.382-36.918,114.424-76.993,150.837c-24.159,21.95-73.086,25.847-123.887,34.58v243.459
					C1039.333,619.633,1130.107,607.436,1264.375,635.373z"/>
				<path id="Path_542" fill="#C6DDFF" d="M1628.811,618.827c-98.669,3-112.331,69-364.436,16.546
					c-134.269-27.937-225.042-15.74-280.572,1.766V800.3h800V657.485C1753.766,634.722,1698.745,616.7,1628.811,618.827z"/>
			</g>
			<g id="fish">
				<path id="Path_543" fill="#F97700" d="M1674.475,488.13c-10.47,0.33-21.626,6.247-22.757,8.588
					c-1.131,2.342,9.5,5.325,17.118,1.068S1674.475,488.13,1674.475,488.13z"/>
				<path id="Path_544" fill="#F97700" d="M1688.766,483.591c-2.986-3.907-24.573,5.661-31.039,13.833s-7.5,21.77-8.673,31.217
					c-1.173,9.446-11.457,6.399-9.967,16.492c0,0,8.6-0.729,10.64-4.542l2.043-3.806c0,0,3.657,10.425,10.087,9.362
					c0,0,0.248-7.989-2.829-12.291c-3.076-4.303-3.806-12.9,1.252-14.48c5.057-1.58,18.199-7.955,23.787-16.34
					S1691.423,487.067,1688.766,483.591z"/>
				<path id="Path_545" fill="#2766C4" d="M1686.41,499.113c-0.7,1.284-1.454,2.584-2.344,3.923
					c-5.585,8.385-18.724,14.758-23.787,16.34c-0.571,0.178-1.102,0.465-1.562,0.847l0.006-0.007
					c3.015-3.1,5.724-6.899,10.451-10.911C1673.855,505.333,1683.931,503.05,1686.41,499.113z"/>
				<path id="Path_546" fill="#2766C4" d="M1674.438,487.969c-0.025-1.332,1.411-2.57,3.82-3.516c5.055-1.8,9.3-2.465,10.484-0.966
					c2,2.509,1.38,7.331-1.532,13.049C1680.813,500.417,1674.466,489.336,1674.438,487.969z"/>
				<path id="Path_547" fill="#192684" d="M1683.261,486.652c-0.187,0.008-0.342-0.286-0.346-0.646
					c-0.004-0.358,0.137-0.655,0.315-0.655c0.18,0,0.342,0.287,0.351,0.641S1683.441,486.651,1683.261,486.652z"/>
				<path id="Path_548" fill="#F97700" d="M1676.8,501.246c-6.576,1.474-6.756,17.022-5.292,16.688
					C1674.1,517.332,1687.337,498.883,1676.8,501.246z"/>
			</g>
			<g id="umbrella">
				<g id="Group_115">
					<path id="Path_549" fill="#98BEF7" d="M1263.058,378.19L1093.3,432.578c0,0-4.076-138.86,94.063-203.632
						s232.524,35.657,254.214,91.644C1442.271,320.244,1263.058,378.19,1263.058,378.19z"/>
					<path id="Path_550" fill="#3478F6" d="M1201.508,396.457c0,0-25.687-155.472,19.323-183.153
						c1.013-0.34,62.4,8.986,113.707,135.653C1335.175,348.29,1201.508,396.457,1201.508,396.457z"/>
				</g>
				
					<ellipse id="Ellipse_26" transform="matrix(-0.3039 -0.9527 0.9527 -0.3039 1293.8251 1699.2488)" fill="#013BFF" cx="1267.695" cy="376.954" rx="18.14" ry="183.054"/>
				<path id="Path_551" fill="#2355F5" d="M1437.385,318.109c-18.416-2.844-90.822,13.7-175.4,40.716
					c-93.023,29.71-166.714,61.2-168.838,71.9c0,0.678,0.034,1.048,0.034,1.048s246.956-100.752,347.566-111.752
					C1439.779,319.147,1438.631,318.495,1437.385,318.109z"/>
				<g id="Group_116">
					<path id="Path_552" fill="#3478F6" d="M1212.548,198.926l113.712,381.7l7.184-2.295l-113.67-381.562
						c-0.587-1.97-2.661-3.091-4.631-2.504c-0.023,0.007-0.045,0.014-0.068,0.021l-0.09,0.028
						C1213.051,194.93,1211.968,196.982,1212.548,198.926z"/>
				</g>
			</g>
			<g id="plant">
				<g id="Group_123">
					<g id="Group_118">
						<path id="Path_553" fill="#B4E1EF" d="M1274.88,613.6c1.952,0.144,3.904,0.277,5.857,0.399
							c3.259,0.21,6.519,0.399,9.781,0.569c11.237,0.6,22.478,1.069,33.707,1.765c-2.235-7.168-4.323-13.408-5.607-17.744
							c-5.081-17.162,27.314-42.465,14.782-63.817c-12.532-21.354,18.76-35.738,4.467-56.778s-20.228-21.459-14.026-43.105
							c6.202-21.646-3.087-28.489-12.106-18.179c-35.206,39.21,3.552,73.081-13.951,99.447c-17.503,26.366,4.647,39.6-2.848,60.565
							c-7.059,19.744-30.549,18.382-21.865,36.838C1273.887,613.569,1274.688,613.582,1274.88,613.6z"/>
						<g id="Group_117">
							<path id="Path_554" fill="#81C2FF" d="M1295.369,612.417c0.44,0.864,0.892,1.675,1.349,2.464
								c1.2,0.061,2.411,0.124,3.617,0.184c-0.787-1.244-1.558-2.565-2.292-4.008c-4.772-9.382,3.051-17.471,11.333-26.036
								c8.9-9.2,18.979-19.628,9.293-31.683c-16.449-20.47-14-26.41-8.076-40.789c0.482-1.171,0.964-2.313,1.437-3.437
								c5.323-12.626,9.919-23.532,0.773-41.33c-8.966-17.448-3.97-26.722,2.764-34.145c3.221-3.551,4.524-6.392,3.983-8.685
								c-0.261-1.164-1.062-2.135-2.155-2.611l-1.087,2.801c0.165,0.121,0.279,0.299,0.322,0.5c0.1,0.439,0.173,2.169-3.285,5.981
								c-7.1,7.827-13.037,18.407-3.21,37.53c8.506,16.553,4.369,26.368-0.869,38.794c-0.477,1.13-0.962,2.281-1.459,3.488
								c-6.017,14.6-9.037,21.929,8.524,43.781c8.029,9.992,0.086,18.207-9.112,27.719
								C1298.571,591.879,1289.628,601.128,1295.369,612.417z"/>
						</g>
					</g>
					<g id="Group_120">
						<path id="Path_555" fill="#B4E1EF" d="M1261.472,508.651c-11.576,29.453,12.862,37.745,9.937,59.812
							c-2.925,22.067-28.954,24.765-10.943,43.753c0.134,0.142,0.257,0.277,0.39,0.417c1.633-0.091,3.27-0.069,4.9,0.063
							c0.772,0.062,1.548,0.128,2.315,0.242c0.546,0.082,4.845,0.557,3.937,0.61c1.031,0.009,2.592,0.026,2.872,0.047
							c1.952,0.145,3.904,0.277,5.857,0.4c3.259,0.21,6.519,0.399,9.781,0.569c8.617,0.458,17.236,0.842,25.851,1.306
							c-6.39-12.564-13.522-24.24-17.213-31.005c-8.572-15.713,17.785-47.255,1.047-65.5c-16.738-18.245,10.836-38.882-7.557-56.45
							c-18.393-17.567-24.285-16.731-22.767-39.2c1.518-22.468-9-27.206-15.655-15.23
							C1228.04,454.221,1273.047,479.2,1261.472,508.651z"/>
						<g id="Group_119">
							<path id="Path_556" fill="#81C2FF" d="M1270.974,498.213c-0.229,1.2-0.461,2.433-0.694,3.717
								c-2.816,15.538-4.229,23.339,17.53,41.016c9.949,8.082,3.908,17.782-3.087,29.013c-6.577,10.562-13.378,21.483-5.393,31.313
								c3.127,3.723,6.643,7.104,10.485,10.084c0.517,0.425,1.021,0.841,1.517,1.254c1.614,0.084,3.228,0.166,4.842,0.244
								c-1.379-1.289-2.879-2.522-4.455-3.816c-3.685-2.855-7.057-6.092-10.06-9.657c-6.636-8.17-0.687-17.722,5.611-27.836
								c6.766-10.863,14.433-23.177,2.431-32.928c-20.382-16.558-19.236-22.88-16.464-38.182c0.226-1.246,0.457-2.466,0.684-3.663
								c2.552-13.462,4.755-25.09-7.925-40.57c-12.431-15.176-9.494-25.292-4.47-33.963c2.4-4.148,3.081-7.2,2.07-9.328
								c-0.499-1.083-1.486-1.863-2.655-2.1l-0.476,2.962c0.188,0.084,0.338,0.235,0.421,0.424c0.194,0.408,0.625,2.085-1.956,6.539
								c-5.3,9.144-8.879,20.735,4.745,37.367C1275.468,474.5,1273.485,484.964,1270.974,498.213z"/>
						</g>
					</g>
					<g id="Group_122">
						<path id="Path_557" fill="#B4E1EF" d="M1265.986,591.67c2.988,8.101,0.863,15.101-0.475,21.013
							c0.082,0.006,0.163,0.007,0.245,0.014c0.772,0.062,1.548,0.128,2.315,0.242c0.546,0.082,4.845,0.557,3.937,0.61
							c1.031,0.009,2.592,0.026,2.872,0.047c1.952,0.145,3.904,0.277,5.857,0.4c3.258,0.21,6.519,0.399,9.781,0.569
							c12.72,0.677,25.446,1.178,38.156,2.044c-12.29-9.85-27.482-18.742-34.765-23.578c-12.932-8.588-5.467-43.449-25.688-50.677
							c-20.221-7.229-7.413-34.215-28.631-40.255c-21.218-6.04-25.4-3.016-33.321-20.865c-7.921-17.851-17.911-17.232-18.171-5.354
							c-1.594,45.677,43.039,46.636,46.071,73.915C1237.201,577.075,1259.305,573.556,1265.986,591.67z"/>
						<g id="Group_121">
							<path id="Path_558" fill="#81C2FF" d="M1277.614,588.966c-0.722,10.035-1.463,20.388,6.628,25.237
								c2.092,0.125,4.183,0.253,6.276,0.365c0.689,0.036,1.379,0.068,2.068,0.1c-1.847-0.512-3.659-1.145-5.423-1.893
								c-8.4-3.584-7.695-13.319-6.953-23.626c0.8-11.072,1.7-23.62-11.453-26.247c-22.336-4.461-24.013-9.774-28.075-22.637
								c-0.331-1.048-0.646-2.076-0.957-3.087c-3.488-11.361-6.5-21.174-22.49-27.922c-15.675-6.615-17.514-15.564-17.166-24.25
								c0.166-4.154-0.548-6.77-2.185-7.994c-0.822-0.629-1.894-0.828-2.887-0.537l0.834,2.465c0.178-0.011,0.354,0.045,0.494,0.155
								c0.314,0.234,1.323,1.347,1.144,5.808c-0.367,9.16,1.574,19.5,18.754,26.751c14.871,6.275,17.583,15.107,21.015,26.288
								c0.312,1.017,0.63,2.053,0.971,3.133c4.124,13.061,6.194,19.616,30.038,24.378
								C1279.15,567.635,1278.438,577.52,1277.614,588.966z"/>
						</g>
					</g>
				</g>
			</g>
			<g id="wave">
				<path id="Path_559" fill="#FFFFFF" d="M1243.746,678.846c-7.539,3.146-15.857-3.016-23.85-2.138
					c-4.794,0.526-9.187,2.05-14.095,1.638c-4.987-0.421-9.348-2.61-14.124-3.908c-7.362-2-13.963-0.629-21.168,1.442
					c-10.539,3.03-18.733,3.582-29.214,0.119c-6.666-2.2-13.228-4.525-20.353-3.965c-10.628,0.838-19.563,4.409-30.458,2.677
					c-7.263-1.153-13.822-1.7-21.1-0.262c-9.671,1.905-18.917,5.5-28.58,7.46c-0.73,0.148-0.41,1.216,0.3,1.1
					c9.326-1.485,18.217-4.688,27.476-6.458c10.482-2,19.184,1.101,29.448,1.592c9.706,0.465,18.866-4.266,28.568-3.2
					c8.246,0.899,15.671,5.077,23.852,6.319c7.353,1.117,13.778-0.8,20.743-2.909c6.207-1.88,12.145-3.407,18.673-1.97
					c4,0.883,7.731,2.68,11.711,3.633c8.631,2.064,16.7-2.582,25.229-0.973c6.407,1.208,11.407,5.016,17.287,0.62
					C1244.456,679.392,1244.258,678.632,1243.746,678.846z"/>
				<path id="Path_560" fill="#FFFFFF" d="M1684.891,645.953c-7.539,3.146-15.857-3.015-23.851-2.138
					c-4.794,0.526-9.187,2.05-14.095,1.637c-4.987-0.42-9.349-2.609-14.125-3.908c-7.36-2-13.962-0.629-21.166,1.443
					c-10.539,3.031-18.733,3.582-29.216,0.12c-6.665-2.2-13.228-4.527-20.352-3.965c-10.628,0.837-19.564,4.407-30.459,2.676
					c-7.262-1.154-13.821-1.7-21.101-0.262c-9.67,1.899-18.916,5.5-28.579,7.46c-0.73,0.147-0.41,1.216,0.3,1.1
					c9.326-1.486,18.218-4.689,27.477-6.458c10.482-2,19.184,1.1,29.448,1.592c9.705,0.464,18.866-4.265,28.567-3.2
					c8.246,0.9,15.671,5.077,23.853,6.32c7.354,1.118,13.778-0.8,20.743-2.91c6.206-1.879,12.145-3.407,18.672-1.969
					c4,0.882,7.731,2.679,11.712,3.632c8.63,2.065,16.7-2.582,25.229-0.972c6.407,1.208,11.407,5.015,17.287,0.621
					C1685.6,646.5,1685.4,645.739,1684.891,645.953z"/>
				<path id="Path_561" fill="#FFFFFF" d="M1729.319,696.637c-13.48-6.052-25.567-1.682-39.443-0.838
					c-7.719,0.469-14.436-2.976-21.773-4.723c-5.843-1.328-11.911-1.316-17.749,0.035c-7.745,1.645-15.143,4.915-23.126,5.389
					c-8.322,0.495-16.399-1.828-24.556-3.031c-16.564-2.441-32.512,5.11-48.961,2.149c-0.884-0.159-1.276,1.153-0.376,1.367
					c14.711,3.505,28.751-2.876,43.483-1.8c7.405,0.541,14.548,2.835,21.905,3.717c6.961,0.754,14.002,0.124,20.719-1.854
					c8.041-2.165,15.959-4.899,24.4-3.7c6.786,0.973,12.96,4.234,19.714,5.342c5.656,0.926,10.744-0.406,16.317-1.313
					c9.883-1.605,18.838-1.519,28.33,1.913C1729.731,699.85,1730.827,697.314,1729.319,696.637z"/>
				<path id="Path_562" fill="#FFFFFF" d="M1680.225,544.475c-0.669-1.244-2.22-1.71-3.463-1.041
					c-1.021,0.55-1.545,1.718-1.276,2.846c8.03,33.211,28.017,69.886-3.541,120c-1.183,1.879-0.218,4.3,2,4.34
					c2.136,0.035,4.332,0.107,5.649,0.156c0.796,0.031,1.563-0.3,2.085-0.9C1687.6,663.084,1720.588,620.01,1680.225,544.475z"/>
				<circle id="Ellipse_27" fill="#FFFFFF" cx="1707.466" cy="658.086" r="7.477"/>
				<circle id="Ellipse_28" fill="#FFFFFF" cx="1711.675" cy="628.664" r="4.209"/>
				<circle id="Ellipse_29" fill="#FFFFFF" cx="1170.529" cy="591.276" r="8.05"/>
				<circle id="Ellipse_30" fill="#FFFFFF" cx="1153.475" cy="629.914" r="5.459"/>
				<g id="Group_124">
					<path id="Path_563" fill="#FFFFFF" d="M1684.121,773.625c1.145-0.183,2.287-0.37,3.426-0.57c3.9-0.69,7.773-1.384,11.685-1.966
						c-13.355,0.054-31.512,2.208-35.969,2.688c-9.72,1.046-19.77,2.127-30.471,2.723c-20.616,1.144-46.82-5.029-69.942-10.476
						c-12.725-3-24.745-5.831-33.758-6.86c-11.161-1.273-33.355,2.229-59.057,6.284c-31.169,4.918-66.482,10.492-85.185,7.492
						c-6.012-0.963-11.971-3.61-18.046-4.811c-6.312-1.247-12.762-2.129-19.254-2.752c-12.595-1.142-25.249-1.49-37.888-1.045
						c-7.661,0.232-15.34,0.3-22.979,0.814c-4.479,0.3-13.543,0.466-18.411,2.357c2.754-0.064,5.511-0.1,8.269-0.12
						c4.245-0.279,8.513-0.412,12.778-0.438c6.327-0.41,12.63-0.971,18.975-0.963c0.607-0.005,1.212,0.071,1.8,0.226
						c18.435-0.783,37.085,0.277,54.5,3.893c18.229,3.782,34.281,6.356,53.5,4.921c17.762-1.327,35.493-4.812,52.589-7.509
						c14.143-2.231,28.281-4.887,42.785-5.63c13.188-0.678,24.938,1.543,37.516,4.234c25.059,5.364,50.036,12.637,76.634,12.637
						c1.834,0,3.639-0.047,5.399-0.146c13.975-0.777,27.7-2.9,41.58-4.2C1677.747,774.12,1680.928,773.84,1684.121,773.625z"/>
				</g>
				<circle id="Ellipse_31" fill="#FFFFFF" cx="1189.33" cy="651.577" r="10.75"/>
				<g id="Group_125">
					<path id="Path_564" fill="#FFFFFF" d="M1577.066,719.968c-12.616,2.042-25.048,5.334-37.606,7.811
						c-14.917,2.94-31.257,5.207-46.286,1.674c-13.536-3.182-25.734-10.645-37.211-18.224c-13.2-8.605-28.527-13.383-44.279-13.801
						c-20.229-0.581-37.96,7.984-56.771,14.136c-15.523,5.075-30.109,11.6-46.406,14.155
						c-39.149,6.128-71.388-20.653-110.313-19.801c-12.576,0.155-24.911,3.478-35.864,9.66c-5.535,3.225-11.946,8.3-15.464,13.609
						c2.513,0,4.841-1.594,7.169-2.644c1.13-1.327,2.362-2.564,3.685-3.7c5.52-4.654,11.8-8.322,18.566-10.844
						c36.908-13.67,72.39,13.756,108.407,17.909c26.2,3.021,49.118-9.009,73.53-15.958c20.872-5.94,41.813-17.105,64.147-13.417
						c19.026,3.142,33.012,17.387,50.049,25.154c21.779,9.927,45.434,10.839,68.667,6.487c17.116-3.205,34.005-8.757,51.362-10.537
						c14.421-1.479,28.827,0.861,42.9,3.871c14,2.995,27.79,9.142,42.332,7.745c-29.046-9.795-59.566-17.506-90.086-14.648
						C1584.066,718.932,1580.559,719.4,1577.066,719.968z"/>
				</g>
			</g>
			<g id="island">
				<g id="Group_126">
					<path id="Path_565" fill="#037A4A" d="M1221.928,699.4c30.906,13.736,58.108,14.589,66.775,29.42
						c29.369-0.311,70.37-18.677,110.4-29.441c35.245-9.476,51.239,17.731,84.423,28.96c6.679-5.774,13.889-10.506,22.4-13.241
						c39.5-12.7,29-113.788,29-113.788l-337.02-2.409v2.399C1197.906,601.3,1185.928,683.4,1221.928,699.4z"/>
				</g>
				<path id="Path_566" fill="#C6DDFF" d="M1278.32,632.874c0,0-14.159,29.006,0,50.146c14.159,21.14,16.536,30.474,16.536,30.474
					s-8.452-24.867-11.414-38.434C1280.48,661.493,1274.161,636.254,1278.32,632.874z"/>
				<path id="Path_567" fill="#C6DDFF" d="M1499.073,663.855c0,0,18.643,36.3-15.309,41.639
					C1483.146,704.16,1507.666,687.55,1499.073,663.855z"/>
				<ellipse id="Ellipse_32" fill="#129F72" cx="1368.396" cy="602.13" rx="171.439" ry="23.114"/>
				<path id="Path_568" fill="#065634" d="M1484.545,619.08c0,0,14.167-1.075,21.076-2.914c0.89-0.089,9.876,38.01,26.465,53.587
					C1532.448,670.095,1492.571,638.073,1484.545,619.08z"/>
				<ellipse id="Ellipse_33" fill="#037A4A" cx="1432.948" cy="594.958" rx="69.365" ry="11.732"/>
			</g>
			<g id="cocktail">
				<ellipse id="Ellipse_34" fill="#037A4A" cx="1330.091" cy="606.691" rx="20.112" ry="3.364"/>
				<g id="Group_127">
					<path id="Path_569" fill="#FFFFFF" d="M1336.076,572.878c7.114-6.687,17.806-17.7,17.806-17.7h-50.492
						c0,0,10.692,11.01,17.806,17.7c3.247,3.052,5.062,4.717,5.062,7.361c0,6.229,0.067,10.746,0.067,18.762
						c0,1.857-0.952,3.077-4,4.101c-2.833,0.879-5.727,1.541-8.66,1.981v1.643c2.456,0.018,14.969,0,14.969,0s12.513,0.018,14.969,0
						v-1.643c-2.933-0.44-5.827-1.103-8.66-1.981c-3.046-1.023-4-2.243-4-4.101c0-8.016,0.067-12.532,0.067-18.762
						C1331.014,577.595,1332.829,575.93,1336.076,572.878z"/>
					<path id="Path_570" fill="#3478F6" d="M1316.959,559.23l2.234-1.252c0,0-5.847-10.422-7.413-13.191
						c-2.791-4.939-5.583-5.737-11.066-3.155c-3.167,1.492-7.235,3.572-7.276,3.593l1.167,2.279c0.04-0.02,4.072-2.081,7.2-3.555
						c4.536-2.136,5.727-1.473,7.745,2.1C1311.115,548.816,1316.959,559.23,1316.959,559.23z"/>
					<path id="Path_571" fill="#FBCB43" d="M1328.636,557.307h-20.695c2.283,2.111,11.153,10.307,15.273,14
						c2.367,2.118,4.072,2.986,5.422,3.116c1.35-0.13,3.055-1,5.422-3.116c4.12-3.689,12.99-11.885,15.273-14H1328.636z"/>
					<path id="Path_572" fill="#FFE167" d="M1342.449,550.9c1.311,0.69,4.884,2.261,5.456,1.688
						c0.009-0.009,0.017-0.019,0.024-0.029c0.011-0.008,0.021-0.016,0.029-0.024c0.572-0.572-1.171-4.209-1.767-5.413
						c-0.55-1.11-0.929-2.931-3.182-0.965c-0.147,0.128-0.535,0.452-0.774,0.709c-0.257,0.239-0.58,0.627-0.709,0.774
						C1339.56,549.891,1341.353,550.321,1342.449,550.9z"/>
					<path id="Path_573" fill="#FFE167" d="M1347.9,557.134c-0.007-0.01-0.016-0.021-0.024-0.029
						c-0.572-0.571-4.21,1.172-5.413,1.768c-1.111,0.549-2.932,0.929-0.966,3.181c0.129,0.148,0.452,0.536,0.709,0.775
						c0.239,0.256,0.627,0.58,0.774,0.708c2.252,1.967,2.682,0.174,3.26-0.922c0.692-1.312,2.261-4.884,1.689-5.456
						C1347.92,557.149,1347.91,557.141,1347.9,557.134z"/>
					<path id="Path_574" fill="#E49306" d="M1350.2,541.482c-0.042,0-0.082,0-0.123,0c-7.386,0.091-13.3,6.151-13.21,13.538
						c0.089,7.258,5.952,13.12,13.21,13.21c0.041,0,0.081,0,0.123,0c7.388,0,13.377-5.989,13.377-13.377
						c0-7.389-5.989-13.377-13.377-13.377V541.482z M1350.2,566.817c-0.042,0-0.082,0-0.123,0
						c-6.602-0.061-11.906-5.462-11.845-12.064c0.06-6.517,5.328-11.785,11.845-11.845c0.041,0,0.081,0,0.123,0
						c6.604,0.062,11.908,5.464,11.847,12.068c-0.061,6.518-5.33,11.786-11.847,11.847V566.817z"/>
					<path id="Path_575" fill="#F5B400" d="M1350.2,542.9c-0.042,0-0.082,0-0.123,0c-6.602,0.061-11.906,5.462-11.845,12.063
						c0.06,6.518,5.328,11.786,11.845,11.846c0.041,0,0.081,0,0.123,0c6.604-0.062,11.908-5.465,11.847-12.068
						c-0.061-6.518-5.33-11.787-11.847-11.847V542.9z M1354.16,547.1c0.578-1.101,1.007-2.89,3.26-0.923
						c0.146,0.129,0.535,0.451,0.774,0.709c0.257,0.238,0.58,0.627,0.709,0.773c1.966,2.252,0.145,2.632-0.966,3.182
						c-1.2,0.601-4.841,2.34-5.413,1.768l-0.024-0.03l-0.029-0.022c-0.571-0.567,1.001-4.141,1.693-5.456H1354.16z M1338.96,555.884
						c-0.013-0.199-0.059-0.699-0.046-1.048c-0.013-0.351,0.033-0.854,0.046-1.049c0.2-2.982,1.758-1.964,2.933-1.566
						c1.272,0.43,5.077,1.769,5.077,2.577c0.001,0.013,0.001,0.025,0,0.038c0.001,0.013,0.001,0.025,0,0.037
						c0,0.81-3.636,2.227-5.052,2.664c-1.182,0.372-2.753,1.335-2.956-1.648L1338.96,555.884z M1346.241,562.609
						c-0.577,1.1-1.008,2.889-3.26,0.922c-0.146-0.128-0.535-0.452-0.774-0.708c-0.257-0.239-0.58-0.627-0.708-0.775
						c-1.967-2.252-0.146-2.631,0.965-3.181c1.2-0.6,4.841-2.339,5.413-1.768l0.024,0.029c0.01,0.008,0.02,0.016,0.029,0.024
						c0.57,0.577-0.995,4.146-1.687,5.461L1346.241,562.609z M1347.956,552.529c-0.009,0.009-0.019,0.017-0.029,0.023
						c-0.007,0.011-0.016,0.021-0.024,0.03c-0.572,0.572-4.145-1-5.456-1.688c-1.1-0.578-2.889-1.009-0.923-3.261
						c0.129-0.146,0.452-0.534,0.709-0.774c0.239-0.256,0.627-0.58,0.774-0.708c2.252-1.966,2.632-0.146,3.182,0.965
						c0.598,1.209,2.341,4.846,1.77,5.418L1347.956,552.529z M1350.114,556.75c-0.012,0-0.023,0-0.035,0
						c-1.045-0.001-1.891-0.85-1.89-1.895c0.001-1.043,0.847-1.888,1.89-1.89c0.012,0,0.023,0,0.035,0
						c1.047,0.068,1.841,0.973,1.772,2.02c-0.062,0.952-0.82,1.711-1.772,1.772V556.75z M1358.878,562.075
						c-0.128,0.147-0.451,0.534-0.708,0.774c-0.239,0.257-0.627,0.58-0.774,0.708c-2.252,1.967-2.632,0.146-3.182-0.966
						c-0.6-1.199-2.339-4.841-1.767-5.413c0.009-0.008,0.019-0.017,0.029-0.023c0.007-0.011,0.016-0.021,0.024-0.029
						c0.572-0.572,4.145,1,5.456,1.688c1.098,0.586,2.891,1.013,0.924,3.266L1358.878,562.075z M1358.51,557.488
						c-1.272-0.429-5.077-1.77-5.077-2.578c-0.001-0.013-0.001-0.024,0-0.037c-0.001-0.013-0.001-0.025,0-0.038
						c0-0.809,3.636-2.226,5.052-2.664c1.184-0.366,2.755-1.33,2.958,1.653c0.013,0.2,0.058,0.7,0.046,1.049
						c0.012,0.351-0.033,0.854-0.046,1.048c-0.201,2.988-1.756,1.97-2.931,1.572L1358.51,557.488z"/>
					<path id="Path_576" fill="#FBCB43" d="M1353.435,554.84c0,0.013,0,0.025,0,0.038c-0.001,0.013-0.001,0.025,0,0.037
						c0,0.81,3.8,2.149,5.077,2.579c1.174,0.4,2.73,1.415,2.933-1.568c0.013-0.199,0.059-0.699,0.046-1.048
						c0.013-0.351-0.033-0.854-0.046-1.049c-0.2-2.982-1.774-2.019-2.958-1.653C1357.071,552.614,1353.435,554.031,1353.435,554.84z
						"/>
					<path id="Path_577" fill="#FBCB43" d="M1357.958,558.819c-1.312-0.691-4.884-2.26-5.456-1.688
						c-0.015,0.021-0.032,0.039-0.053,0.054c-0.572,0.571,1.171,4.209,1.767,5.413c0.55,1.11,0.929,2.932,3.182,0.965
						c0.147-0.128,0.535-0.452,0.774-0.708c0.257-0.239,0.58-0.627,0.708-0.774C1360.847,559.827,1359.054,559.4,1357.958,558.819z"
						/>
					<path id="Path_578" fill="#FBCB43" d="M1352.475,552.561l0.029,0.022c0.007,0.011,0.015,0.021,0.024,0.03
						c0.572,0.572,4.21-1.171,5.413-1.767c1.111-0.551,2.932-0.931,0.966-3.183c-0.129-0.146-0.452-0.535-0.709-0.773
						c-0.239-0.258-0.627-0.58-0.774-0.709c-2.253-1.967-2.682-0.175-3.261,0.923C1353.472,548.416,1351.9,551.988,1352.475,552.561
						z"/>
					<path id="Path_579" fill="#FBCB43" d="M1350.116,552.963c-0.012,0-0.023,0-0.035,0c-1.045,0.002-1.891,0.85-1.889,1.895
						c0.001,1.043,0.846,1.889,1.889,1.89c0.012,0,0.023,0,0.035,0c1.047-0.068,1.841-0.972,1.773-2.02
						c-0.062-0.952-0.821-1.71-1.773-1.772V552.963z"/>
					<path id="Path_580" fill="#FBCB43" d="M1351.133,543.623c-0.194-0.013-0.7-0.058-1.045-0.047l0,0
						c-0.351-0.012-0.854,0.034-1.049,0.047c-2.983,0.2-2.02,1.774-1.653,2.958c0.439,1.416,1.855,5.052,2.664,5.052h0.076
						c0.808,0,2.148-3.8,2.578-5.076C1353.1,545.381,1354.116,543.825,1351.133,543.623z"/>
					<path id="Path_581" fill="#FFE167" d="M1352.75,563.018c-0.439-1.416-1.855-5.053-2.664-5.053h-0.076
						c-0.809,0-2.148,3.801-2.578,5.077c-0.4,1.174-1.416,2.73,1.568,2.934c0.194,0.013,0.694,0.058,1.045,0.046l0,0
						c0.35,0.012,0.854-0.033,1.048-0.046C1354.08,565.773,1353.116,564.2,1352.75,563.018z"/>
				</g>
			</g>
			<g id="boy">
				<path id="Path_582" fill="#F7BA84" d="M1470.58,557.6c-3.034-9.095,1.878-18.927,10.973-21.961
					c1.629-0.543,3.328-0.842,5.045-0.887c9.814-0.138,21.318,0.963,27.761,5.972c12.769,9.923,63.228,57.649,69.274,63.199
					c6.047,5.551,7.341,9.713,20.768,0c16.073-11.628,24.872-16.377,12.848,4.694c-12.025,21.071-10.621,19.941-14.178,22.146
					c-3.556,2.205-7.219-5.146-12.854-5.268s-84.409-25.114-105.729-46.185C1478.187,573.287,1473.418,565.843,1470.58,557.6z"/>
				<path id="Path_583" fill="#FAC896" d="M1443.574,417.57c0,0-0.11,7.847-0.301,8.899c-0.189,1.054-4.813,0.585-4.5,0
					C1439.087,425.886,1443.574,417.57,1443.574,417.57z"/>
				<path id="Path_2235" fill="#037A4A" d="M1418.353,534.303h18.713c4.102,0,7.427,3.325,7.427,7.427l0,0
					c0,4.101-3.325,7.426-7.427,7.426l0,0h-18.713c-4.101,0-7.426-3.325-7.426-7.426l0,0l0,0
					C1410.927,537.628,1414.252,534.303,1418.353,534.303L1418.353,534.303z"/>
				<path id="Path_584" fill="#B01F1A" d="M1330.578,505.49l31.268,10.893c3.005,1.048,5.077,3.811,5.24,6.988l0.919,17.912
					C1368.005,541.283,1332.806,524.352,1330.578,505.49z"/>
				<path id="Path_2234" fill="#FAC896" d="M1421.127,408.338l10.913,5.049c2.005,0.927,2.878,3.305,1.95,5.31l-10.549,22.803
					c-0.928,2.005-3.306,2.879-5.311,1.951l-10.912-5.049c-2.005-0.928-2.879-3.305-1.951-5.31l10.55-22.804
					C1416.745,408.283,1419.122,407.41,1421.127,408.338z"/>
				<path id="Path_585" fill="#F39C55" d="M1414.43,424.716l10.011,14.426l4.774-9.2L1414.43,424.716z"/>
				<path id="Path_586" fill="#55312F" d="M1437.5,387.026c0,0,12.378-4.752,16.363,2.64c3.984,7.393-2.186,24.226-10.661,20.832
					C1434.726,407.105,1437.5,387.026,1437.5,387.026z"/>
				<ellipse id="Ellipse_35" fill="#FAC896" cx="1426.628" cy="410.092" rx="18.289" ry="22.5"/>
				<path id="Path_587" fill="#55312F" d="M1407.53,376.456c0.454,0.009,0.908-0.014,1.358-0.065
					c3.148-0.44,5.337-3.464,8.069-4.878c2.333-1.237,4.918-1.927,7.558-2.016c8.101-0.176,14.481,6.838,17.039,13.495
					c1.546,4.021,0.71,4.767,3.911,6.765s6.213,2.96,5.777,7.226c-0.437,4.265-5.848,8.346-11.53,8.731
					c-5.081,0.347-9.785,0.631-13.414,4.669c-0.752,0.842-2.001,1.018-2.956,0.416l-0.038-0.023
					c-0.564-0.356-0.946-0.94-1.046-1.601c-0.236-1.529-0.871-4.249-2.414-4.436c-2.154-0.261-4.266,2.369-2.276,8.377
					c1.269,3.837-0.995,5.2-0.995,5.2s-3.74,2.309-10.435,0.938c-3.396-0.299-6.605-1.682-9.156-3.943
					c-4.5-3.771-5.836-8.436-6.458-14.056c-0.613-5.543,3.301-5.289,2.941-12.085c-0.012-0.188-0.045-0.376-0.1-0.557
					c-0.939-3.071-0.188-5.767,2.834-8.184c3.045-2.596,6.925-4.004,10.926-3.967
					C1407.257,376.456,1407.393,376.456,1407.53,376.456z"/>
				<path id="Path_588" fill="#FAC896" d="M1473.672,538.236c0,0,49.05-12.977,58.482,45.634c9.434,58.61,11.28,81.906,15.2,83.445
					s27.5,10.6,31.576,13.676s11.566,7.112-11.515,5.759c-23.081-1.353-31.762,1.078-31.877-6.605
					c-0.115-7.685-5.601-13.707-11.065-19.911s-26.69-31.592-29.62-66.713c0.101,1.055-56.636,17.206-51.157-31.771
					C1444.922,548.232,1467.922,537.415,1473.672,538.236z"/>
				<path id="Path_589" fill="#FFFFFF" d="M1368.818,541.283c0,0-23.122-66.032,17.157-79.552
					c40.279-13.521,50.671,76.779,50.066,79.552C1435.436,544.055,1368.818,541.283,1368.818,541.283z"/>
				<path id="Path_590" fill="#037A4A" d="M1486.58,537.67c0.283-0.939,0.647-1.853,1.088-2.729
					c0.067-0.108,0.034-0.251-0.074-0.318c-0.032-0.021-0.069-0.032-0.108-0.035c-2.161-0.173-11.515-0.874-13.809-0.284
					c-1.709,0.439-2.68,2.773-3.144,4.32c-0.162,0.553,0.155,1.131,0.707,1.293c0.112,0.032,0.229,0.046,0.345,0.04l12.767-0.6
					C1485.372,539.309,1486.258,538.639,1486.58,537.67z"/>
				<path id="Path_591" fill="#F39C55" d="M1484.067,594.058c0.241,1.025-0.395,2.053-1.421,2.293
					c-0.051,0.012-0.102,0.021-0.152,0.029c-4.376,0.685-12.909,1.888-13.527,0.961c-0.833-1.25,12.579-51.667,14.956-52
					C1486.069,545.041,1481.793,584.63,1484.067,594.058z"/>
				<path id="Path_592" fill="#FDBD28" d="M1368.4,539.713c0,0,115.626-5.069,119.866-2.951c4.239,2.119-11.351,14.179-8.775,51.732
					c0.311,3.154,0.593,5.2,0.823,6.531c0.238,1.218-0.557,2.398-1.774,2.636c-0.064,0.013-0.129,0.022-0.193,0.029
					c-14.073,1.19-81.292,5.65-101.028-15.705C1369.564,573.437,1368.4,539.713,1368.4,539.713z"/>
				<path id="Path_593" fill="#FDA428" d="M1431.336,530.059c2.211,13.3,6.679,17.485,10.21,18.925
					c6.009,2.45,9.668-2.9,22.661-2.49c8.142,0.254,11.869,2.514,14.94,0c3.282-2.685,2.986-8.5,2.241-12.949L1431.336,530.059z"/>
				<g id="Object">
					<path id="Path_2233" fill="#192684" d="M1441.374,530.788h67.428c0.654,0.002,1.184,0.533,1.184,1.188v3.08
						c0,0.655-0.531,1.188-1.188,1.188l0,0h-67.424c-0.656,0-1.188-0.532-1.188-1.188v-3.08
						C1440.186,531.32,1440.718,530.788,1441.374,530.788z"/>
					<path id="Path_2232" fill="#192684" d="M1526.226,448.689l2.842,0.69c0.83,0.201,1.339,1.037,1.138,1.867l0,0l-19.473,80.139
						c-0.201,0.83-1.037,1.339-1.867,1.138l0,0l-2.842-0.69c-0.829-0.201-1.339-1.037-1.137-1.867l0,0l19.472-80.14
						C1524.561,448.997,1525.397,448.487,1526.226,448.689L1526.226,448.689z"/>
				</g>
				<path id="Path_594" fill="#F7BA84" d="M1441.847,469.909c0,0,16.755,33.8,39.183,46.72c5.791,3.268,12.771,1.635,15.594,4.753
					c2.822,3.119,3.119,8.614,1.337,9.208c-1.782,0.595-10.952,2.106-13.411,0.595c-2.459-1.513-54.99-8.223-66.641-41.586
					C1418.5,489.3,1441.847,469.909,1441.847,469.909z"/>
				<path id="Path_595" fill="#E52822" d="M1405.877,440.735c0,0,12.3-8.285,18.031-2.36c5.732,5.925,18.207,32.808,19.101,33.55
					c0.893,0.743-15.3,15.301-15.3,15.301L1405.877,440.735z"/>
				<g id="Group_128">
					<path id="Path_596" fill="#FFFFFF" d="M1414.748,460.219l-1.801-3.839l0.428,0.101c1.26,0.28,2.055,1.529,1.774,2.79
						c-0.044,0.193-0.111,0.381-0.202,0.558L1414.748,460.219z M1413.739,457.063l0.991,2.112c0.03-0.131,0.046-0.265,0.046-0.399
						C1414.779,458.055,1414.378,457.394,1413.739,457.063z"/>
					<path id="Path_597" fill="#FFFFFF" d="M1426.655,483.661c-0.318,0-0.634-0.064-0.927-0.19l-0.073-0.031l-1.279-2.721
						l0.023-0.077c0.049-0.168,0.116-0.33,0.2-0.483c0.356-0.891,1.221-1.473,2.179-1.467c1.371,0.123,2.381,1.334,2.258,2.704
						c-0.112,1.246-1.132,2.216-2.383,2.266H1426.655z M1425.969,483.108c0.988,0.375,2.095-0.115,2.48-1.101l0.011-0.024
						c0.163-0.285,0.25-0.607,0.253-0.937c0.001-1.066-0.863-1.932-1.93-1.933c-0.793-0.001-1.506,0.484-1.798,1.222
						c-0.062,0.111-0.113,0.228-0.154,0.348L1425.969,483.108z"/>
					<path id="Path_598" fill="#FFFFFF" d="M1413.965,442.946c-1.304,0-2.36-1.057-2.36-2.36c0-1.303,1.057-2.359,2.36-2.359
						c1.303,0,2.359,1.057,2.359,2.359l0,0C1416.323,441.888,1415.268,442.945,1413.965,442.946z M1413.965,438.653
						c-1.067,0-1.933,0.866-1.932,1.934c0,1.067,0.866,1.933,1.934,1.933c1.067-0.001,1.932-0.866,1.932-1.934
						C1415.898,439.518,1415.032,438.653,1413.965,438.653z"/>
					<path id="Path_599" fill="#FFFFFF" d="M1426.655,452.821c-0.033-0.001-0.066-0.004-0.1-0.009l-0.021-0.218l-0.022,0.218
						c-0.033,0.005-0.066,0.008-0.1,0.009c-1.304,0-2.36-1.057-2.36-2.36c0-1.303,1.057-2.359,2.36-2.359
						c0.033,0,0.066,0.003,0.1,0.009c0.08,0,0.115-0.009,0.149-0.009c1.303,0,2.359,1.057,2.359,2.359
						c0,1.304-1.057,2.36-2.359,2.36H1426.655z M1426.438,448.533c-1.065-0.031-1.955,0.807-1.987,1.873
						c-0.032,1.065,0.807,1.955,1.873,1.987c0.027,0.001,0.055,0.001,0.081,0.001l0.125-0.014l0.082,0.01h0.009
						c1.066,0.009,1.938-0.848,1.948-1.914s-0.847-1.938-1.913-1.948l0,0c-0.066,0.008-0.089,0.011-0.113,0.012
						c-0.032,0-0.063-0.003-0.095-0.007H1426.438z"/>
					<path id="Path_600" fill="#FFFFFF" d="M1427.778,469.648c-1.303-0.002-2.357-1.058-2.359-2.36c0-0.033,0.004-0.066,0.009-0.1
						c-0.005-0.078-0.009-0.111-0.009-0.146c0-1.303,1.057-2.359,2.359-2.359s2.359,1.057,2.359,2.359
						c-0.001,0.034-0.003,0.067-0.008,0.101c0,0.084,0.008,0.116,0.008,0.15C1430.133,468.594,1429.078,469.646,1427.778,469.648z
						 M1427.778,465.105c-1.067,0-1.933,0.865-1.934,1.933l0.013,0.11l-0.008,0.1c-0.013,1.066,0.843,1.941,1.909,1.953
						s1.94-0.843,1.953-1.909c-0.008-0.063-0.012-0.089-0.012-0.115c0-0.033,0.002-0.066,0.007-0.1
						c0.02-1.069-0.831-1.952-1.9-1.972C1427.797,465.105,1427.787,465.105,1427.778,465.105z"/>
				</g>
				<path id="Path_601" fill="#DFCCC3" d="M1409.49,509.545c0.481,1.147,0.362,2.459-0.318,3.5
					c-3.75,5.976-18.2,27.783-27.92,25.407c-11.25-2.75-13.273-12.875-18.637-20C1357.474,511.628,1403.129,495.343,1409.49,509.545
					z"/>
				<path id="Path_602" fill="#E52822" d="M1398.653,430.554c0,0,16.111-4.557,22.273,12.583c6.162,17.141,9.7,23.283,2.18,36.828
					c-7.52,13.545-18.848,36.076-36.516,50.164c-3.918,2.963-8-4.664-17.271-8.038s-35.586-4.077-38.741-16.6
					C1330.578,505.49,1375.884,436.266,1398.653,430.554z"/>
				<path id="Path_603" fill="#B01F1A" d="M1405.849,510.172c1.317-1.731,1.321-4.129,0.009-5.864
					c-3.518-4.674-10.835-14.56-11-16.153c-0.03-0.3,0.2,1.107,0.234,1.316c0.264,1.672,0.523,3.344,0.794,5.014
					c0.546,3.37,0.8,6.794,1.658,10.108c0.817,3.169,2.114,5.789,2.339,9.113c0.03,0.449,0.431,2.79,0.095,3.134
					C1402.045,514.717,1404.005,512.491,1405.849,510.172z"/>
				<path id="Path_604" fill="#B01F1A" d="M1419.63,441.053l12.042,34.559c0,0,3.188-0.645,4.313-2.27
					S1421.087,446.89,1419.63,441.053z"/>
				<path id="Path_605" fill="#B01F1A" d="M1419.63,441.053l13.551,41.157l5.813-5.548
					C1438.994,476.662,1427.19,458.394,1419.63,441.053z"/>
				<g id="Group_132">
					<circle id="Ellipse_36" fill="#F97700" cx="1433.191" cy="416.433" r="0.203"/>
					<circle id="Ellipse_37" fill="#F97700" cx="1433.254" cy="417.57" r="0.203"/>
					<circle id="Ellipse_38" fill="#F97700" cx="1434.453" cy="417.295" r="0.203"/>
					<circle id="Ellipse_39" fill="#F97700" cx="1434.739" cy="418.511" r="0.203"/>
					<g id="Group_129">
						<path id="Path_606" fill="#FFFFFF" d="M1436.6,423.133c-0.438-0.57-0.655-1.281-0.611-2c0.041-1.235,0.366-2.444,0.951-3.532
							c1.33-2.595,3.488-4.054,4.913-3.323c1.425,0.729,1.5,3.335,0.171,5.929l0,0c-0.542,1.11-1.333,2.081-2.313,2.835
							c-0.703,0.646-1.712,0.834-2.6,0.487C1436.917,423.43,1436.743,423.296,1436.6,423.133z M1441.775,415.193
							c-0.077-0.09-0.171-0.164-0.276-0.219c-0.894-0.457-2.659,0.633-3.865,2.984c-0.529,0.979-0.825,2.066-0.865,3.178
							c-0.244,0.743,0.16,1.543,0.902,1.787c0.584,0.191,1.225-0.015,1.586-0.512c0.88-0.681,1.59-1.556,2.075-2.557l0,0
							C1442.4,417.772,1442.406,415.91,1441.775,415.193z"/>
					</g>
					<g id="Group_130">
						<path id="Path_607" fill="#FFFFFF" d="M1442.543,417.825c-0.114-0.183-0.06-0.423,0.123-0.537
							c0.11-0.069,0.248-0.079,0.367-0.026l1.02,0.464c0.195,0.088,0.282,0.319,0.194,0.515c-0.089,0.195-0.319,0.282-0.516,0.194
							l-1.021-0.462C1442.642,417.94,1442.583,417.889,1442.543,417.825z"/>
					</g>
					<circle id="Ellipse_40" fill="#231F20" cx="1439.989" cy="417.815" r="1.01"/>
					<path id="Path_2231" fill="#FFFFFF" d="M1422.094,407.518l16.839,7.79c0.197,0.091,0.283,0.325,0.191,0.521l-0.037,0.081
						c-0.091,0.197-0.324,0.283-0.521,0.191l-16.839-7.79c-0.197-0.092-0.283-0.325-0.192-0.521l0,0l0.038-0.081
						C1421.663,407.513,1421.897,407.427,1422.094,407.518L1422.094,407.518z"/>
					<path id="Path_608" fill="#F74000" d="M1430.573,425.893c0,0,2.213,3.179,4.077,2.634
						C1435.008,428.518,1427.5,432.848,1430.573,425.893z"/>
					<g id="Group_131">
						<path id="Path_609" fill="#231F20" d="M1443.985,414.343c-0.116,0-0.217-0.08-0.244-0.193
							c-0.173-0.658-0.598-1.222-1.183-1.569c-0.802-0.331-1.709-0.288-2.475,0.118c-0.127,0.055-0.274-0.004-0.329-0.131
							s0.004-0.273,0.131-0.328c0.002-0.001,0.005-0.002,0.007-0.003c0.902-0.469,1.968-0.506,2.9-0.101
							c0.716,0.414,1.234,1.099,1.438,1.9c0.032,0.134-0.052,0.268-0.186,0.3c-0.001,0-0.001,0-0.002,0
							C1444.024,414.341,1444.004,414.344,1443.985,414.343z"/>
					</g>
				</g>
				<path id="Path_610" fill="#FFFFFF" d="M1377.162,524.726c-1.303,0-2.36-1.057-2.36-2.36s1.057-2.36,2.36-2.36
					s2.36,1.057,2.36,2.36l0,0C1379.521,523.669,1378.465,524.724,1377.162,524.726z M1377.162,520.433
					c-1.067,0-1.933,0.866-1.932,1.934c0.001,1.067,0.867,1.933,1.934,1.932c1.067,0,1.932-0.865,1.932-1.933
					C1379.095,521.299,1378.23,520.433,1377.162,520.433z M1391.787,519.933c-1.304,0-2.36-1.057-2.36-2.36s1.057-2.36,2.36-2.36
					c1.303,0,2.359,1.057,2.359,2.36l0,0C1394.146,518.876,1393.09,519.931,1391.787,519.933z M1391.787,515.64
					c-1.068,0-1.933,0.866-1.933,1.934c0.001,1.067,0.866,1.933,1.935,1.932c1.066,0,1.932-0.865,1.932-1.933
					C1393.72,516.506,1392.855,515.64,1391.787,515.64L1391.787,515.64z M1363.225,519.933c-1.303,0-2.36-1.056-2.361-2.359
					s1.056-2.36,2.359-2.361c1.304,0,2.36,1.056,2.361,2.359v0.001C1365.583,518.876,1364.528,519.931,1363.225,519.933z
					 M1363.225,515.64c-1.067,0-1.933,0.866-1.932,1.934c0,1.067,0.866,1.933,1.934,1.932c1.067,0,1.932-0.865,1.932-1.933
					C1365.157,516.506,1364.292,515.641,1363.225,515.64L1363.225,515.64z M1377.162,511.62c-1.303-0.001-2.358-1.058-2.358-2.36
					s1.057-2.358,2.36-2.357c1.303,0,2.358,1.057,2.358,2.358C1379.521,510.563,1378.465,511.619,1377.162,511.62L1377.162,511.62z
					 M1377.162,507.328c-1.067,0.001-1.933,0.866-1.932,1.934c0.001,1.068,0.867,1.933,1.934,1.933
					c1.067-0.001,1.932-0.866,1.932-1.934C1379.095,508.193,1378.23,507.329,1377.162,507.328L1377.162,507.328z M1347.902,511.62
					c-1.303-0.001-2.358-1.057-2.36-2.359c0.002-0.244,0.043-0.486,0.122-0.718c0.256-1.276,1.499-2.104,2.775-1.849
					c1.104,0.221,1.897,1.191,1.895,2.316c-0.002,0.249-0.045,0.495-0.126,0.73c-0.224,1.096-1.189,1.882-2.308,1.879H1347.902z
					 M1347.975,507.078c-0.925-0.001-1.721,0.652-1.9,1.56l-0.006,0.026c-0.067,0.193-0.103,0.396-0.106,0.6
					c0.002,1.068,0.87,1.932,1.938,1.929c0.92-0.002,1.712-0.653,1.892-1.557c0.07-0.199,0.107-0.409,0.112-0.622
					C1349.904,507.947,1349.041,507.082,1347.975,507.078L1347.975,507.078z M1390.985,503.191c-1.303,0-2.36-1.056-2.36-2.359
					c-0.001-1.304,1.056-2.36,2.358-2.361c1.304,0,2.361,1.056,2.361,2.359v0.001
					C1393.342,502.134,1392.287,503.189,1390.985,503.191L1390.985,503.191z M1390.985,498.898c-1.067,0-1.933,0.865-1.933,1.933
					s0.865,1.933,1.933,1.933c1.068,0,1.934-0.865,1.934-1.933l0,0c-0.002-1.066-0.867-1.93-1.934-1.931V498.898z M1362.422,503.191
					c-1.304,0-2.36-1.057-2.36-2.36s1.057-2.36,2.36-2.36c1.303,0,2.36,1.057,2.36,2.36l0,0
					C1364.781,502.134,1363.725,503.19,1362.422,503.191L1362.422,503.191z M1362.422,498.898c-1.068,0-1.933,0.866-1.932,1.934
					s0.866,1.933,1.934,1.932c1.067,0,1.932-0.865,1.932-1.933c-0.002-1.066-0.867-1.931-1.934-1.931V498.898z M1333.287,503.191
					c-0.342-0.002-0.68-0.078-0.99-0.224l-0.226-0.1l0.139-0.208c0.641-0.952,1.437-2.127,2.376-3.5l0.142-0.206l0.181,0.172
					c0.471,0.442,0.738,1.061,0.737,1.707C1335.643,502.135,1334.589,503.189,1333.287,503.191L1333.287,503.191z M1332.712,502.673
					c0.186,0.061,0.38,0.091,0.575,0.091c1.067-0.001,1.932-0.865,1.933-1.933c0.001-0.442-0.152-0.87-0.433-1.212
					C1333.985,500.792,1333.29,501.816,1332.712,502.673L1332.712,502.673z M1376.36,494.873c-1.303,0-2.359-1.056-2.359-2.359
					c0-1.303,1.056-2.358,2.359-2.358c1.302,0,2.358,1.056,2.359,2.358c0.002,1.304-1.055,2.363-2.359,2.364l0,0V494.873z
					 M1376.36,490.58c-1.068,0-1.935,0.865-1.935,1.933c0,1.068,0.865,1.935,1.933,1.936c1.068,0.001,1.935-0.865,1.936-1.933
					c0-0.001,0-0.002,0-0.002c-0.005-1.065-0.868-1.927-1.933-1.929V490.58z M1347.099,494.873c-1.49,0.154-2.823-0.93-2.977-2.42
					s0.93-2.823,2.42-2.978c1.491-0.153,2.824,0.93,2.978,2.42c0.038,0.37,0,0.743-0.112,1.098
					c-0.226,1.096-1.189,1.882-2.307,1.885L1347.099,494.873z M1347.172,490.33c-0.925,0-1.721,0.653-1.9,1.561
					c-0.069,0.2-0.106,0.41-0.112,0.622c-0.001,1.068,0.864,1.935,1.932,1.935c0.925,0.001,1.721-0.653,1.898-1.562
					c0.069-0.2,0.106-0.41,0.111-0.623c-0.004-1.063-0.865-1.924-1.929-1.928V490.33z M1392.108,489.173
					c-1.303,0.001-2.36-1.056-2.36-2.358c-0.001-1.304,1.056-2.36,2.358-2.361c1.304-0.001,2.361,1.056,2.361,2.359c0,0,0,0,0,0.001
					c0.001,1.304-1.055,2.362-2.359,2.364V489.173z M1392.108,484.88c-1.067,0-1.933,0.865-1.933,1.934
					c0,1.067,0.865,1.933,1.933,1.933c1.068,0,1.934-0.865,1.934-1.933l0,0c-0.004-1.065-0.868-1.927-1.934-1.929V484.88z
					 M1363.545,489.173c-1.304,0-2.36-1.057-2.36-2.359c0-1.304,1.057-2.36,2.36-2.36c1.303,0,2.36,1.057,2.36,2.36l0,0
					c0.001,1.305-1.055,2.363-2.36,2.364V489.173z M1363.545,484.88c-1.068,0.001-1.933,0.866-1.932,1.935
					c0,1.067,0.866,1.933,1.934,1.932c1.067,0,1.932-0.865,1.932-1.933c-0.004-1.065-0.868-1.928-1.934-1.929V484.88z
					 M1377.483,480.86c-1.303,0-2.361-1.056-2.361-2.359c-0.001-1.304,1.055-2.36,2.359-2.36c1.303-0.001,2.361,1.055,2.361,2.358
					c0,0.001,0,0.001,0,0.001c0.002,1.305-1.055,2.363-2.359,2.365l0,0V480.86z M1377.483,476.567c-1.068,0-1.933,0.865-1.933,1.933
					s0.865,1.934,1.933,1.934c1.067,0,1.933-0.866,1.933-1.934l0,0c-0.004-1.065-0.868-1.927-1.933-1.928V476.567z M1348.222,480.86
					c-0.039-0.001-0.078-0.004-0.117-0.01l-0.39-0.027l0.188-0.319c0.739-0.993,1.493-1.999,2.262-3.017l0.249-0.331l0.124,0.395
					c0.075,0.227,0.114,0.463,0.117,0.7C1350.611,479.607,1349.572,480.721,1348.222,480.86L1348.222,480.86z M1350.222,478.118
					c-0.582,0.772-1.155,1.539-1.721,2.3c0.81-0.12,1.457-0.736,1.616-1.54c0.069-0.2,0.106-0.41,0.111-0.623
					c0.001-0.042-0.001-0.086-0.005-0.132L1350.222,478.118z M1390.984,472.346c-1.303,0.001-2.36-1.055-2.36-2.358
					c-0.001-1.304,1.056-2.36,2.358-2.361c1.304,0,2.36,1.056,2.361,2.359c0,0.001,0,0.001,0,0.002
					c0.001,1.304-1.055,2.361-2.358,2.364L1390.984,472.346z M1390.984,468.053c-1.067,0-1.933,0.866-1.933,1.934
					s0.865,1.933,1.933,1.933s1.933-0.864,1.934-1.932c-0.004-1.065-0.867-1.927-1.933-1.929L1390.984,468.053z M1362.421,472.346
					c-1.304,0-2.36-1.056-2.36-2.359s1.057-2.36,2.36-2.36c1.303,0,2.36,1.057,2.36,2.36c0,0,0,0,0,0.001
					c0.001,1.304-1.055,2.362-2.359,2.364L1362.421,472.346z M1362.421,468.053c-1.068,0.001-1.933,0.867-1.932,1.935
					s0.866,1.933,1.934,1.932c1.066,0,1.932-0.865,1.932-1.932c-0.004-1.065-0.867-1.928-1.933-1.929L1362.421,468.053z
					 M1376.359,464.033c-1.303,0-2.359-1.057-2.359-2.359s1.056-2.358,2.359-2.358c1.303,0,2.359,1.056,2.359,2.358
					c0.001,1.304-1.054,2.362-2.358,2.364L1376.359,464.033z M1376.359,459.741c-1.068,0-1.933,0.865-1.933,1.933
					c0,1.068,0.865,1.934,1.933,1.934c1.067,0,1.933-0.865,1.933-1.934l0,0c-0.004-1.064-0.867-1.926-1.932-1.928L1376.359,459.741z
					 M1421.169,454.158c-1.303-0.001-2.358-1.058-2.358-2.36c0.001-1.303,1.058-2.358,2.36-2.357c1.303,0,2.358,1.057,2.358,2.358
					c0.001,1.305-1.056,2.362-2.359,2.364L1421.169,454.158z M1421.169,449.865c-1.068,0-1.935,0.866-1.935,1.934
					c0,1.068,0.866,1.935,1.935,1.935c1.067,0,1.934-0.866,1.934-1.935l0,0c-0.004-1.065-0.867-1.927-1.933-1.929L1421.169,449.865z
					 M1392.107,454.158c-1.303,0-2.358-1.057-2.358-2.359s1.056-2.358,2.358-2.358c1.304,0,2.359,1.056,2.359,2.358
					c0.001,1.304-1.055,2.362-2.358,2.364L1392.107,454.158z M1392.107,449.865c-1.067-0.001-1.935,0.865-1.935,1.933
					c-0.001,1.068,0.865,1.935,1.933,1.936c1.068,0,1.935-0.865,1.936-1.934c0,0,0,0,0-0.001c-0.004-1.064-0.867-1.927-1.933-1.929
					L1392.107,449.865z M1405.919,445.846c-1.303-0.002-2.357-1.058-2.359-2.359c0.001-0.033,0.004-0.067,0.009-0.101
					c-0.005-0.078-0.009-0.112-0.009-0.147c0-1.303,1.057-2.359,2.359-2.359c1.304,0,2.36,1.057,2.36,2.359
					c-0.001,0.033-0.004,0.066-0.01,0.1c0.005,0.077,0.01,0.111,0.01,0.146c0.002,1.305-1.055,2.364-2.359,2.367l0,0
					L1405.919,445.846z M1405.919,441.303c-1.067,0.002-1.932,0.866-1.933,1.934l0.012,0.109l-0.007,0.101
					c-0.013,1.066,0.842,1.94,1.909,1.953c1.066,0.012,1.94-0.843,1.952-1.909l-0.013-0.11l0.008-0.1
					c0.02-1.07-0.833-1.953-1.903-1.972c-0.008,0-0.017,0-0.024,0L1405.919,441.303z M1377.482,445.846h-0.567l0.375-0.363
					c0.733-0.733,1.463-1.447,2.191-2.142l0.362-0.346v0.5c-0.004,1.301-1.059,2.354-2.36,2.356L1377.482,445.846z
					 M1379.321,444.082c-0.427,0.412-0.856,0.831-1.285,1.256c0.607-0.183,1.087-0.649,1.286-1.251L1379.321,444.082z
					 M1390.984,437.332c-1.038,0.002-1.953-0.682-2.248-1.677l-0.044-0.146l0.123-0.089c1.166-0.842,2.32-1.6,3.432-2.269
					l0.13-0.078l0.117,0.1c0.999,0.829,1.138,2.311,0.31,3.311c-0.449,0.541-1.116,0.854-1.819,0.851V437.332z M1389.193,435.673
					c0.283,0.743,0.996,1.234,1.791,1.233c1.063,0.005,1.929-0.852,1.934-1.915c0.003-0.524-0.21-1.028-0.587-1.394
					c-1.018,0.619-2.071,1.316-3.137,2.08L1389.193,435.673z"/>
				<path id="Path_611" fill="#FAC896" d="M1393.475,475.875l29.068-13.5c2.003-0.931,4.382-0.062,5.313,1.942
					c0.097,0.208,0.176,0.424,0.235,0.646c3.22,11.979,12.438,43.734,21.665,51.88c11.438,10.101,17.264,16.956,22.34,9.601
					c2.951-3.353,13.126,4.494,12.414,8.008s-5.562,2.673-5.562,2.673s-1.531-0.586-4.467,2.44
					c-2.935,3.025-39.589,5.651-56.574-15.101c-13.151-16.066-22.729-35.391-26.382-43.294
					C1390.605,479.17,1391.477,476.801,1393.475,475.875z"/>
				<path id="Path_612" fill="#E52822" d="M1388.221,463.41l32.624-12.657c1.061-0.419,2.262,0.088,2.7,1.142l8.661,21.899
					c0.362,0.931-0.029,1.985-0.911,2.454l-34.338,18.846c-1.006,0.563-2.277,0.203-2.839-0.803
					c-0.083-0.148-0.147-0.307-0.192-0.471l-6.947-28.086C1386.745,464.757,1387.279,463.759,1388.221,463.41z"/>
				<path id="Path_613" fill="#FFFFFF" d="M1408.638,488.7l-0.1-0.042c-1.273-0.494-1.905-1.927-1.411-3.2s1.927-1.905,3.2-1.411
					c0.913,0.354,1.531,1.215,1.575,2.194c-0.002,0.22-0.036,0.438-0.1,0.647l-0.024,0.085L1408.638,488.7z M1409.547,484.308
					c-0.925-0.001-1.721,0.653-1.9,1.561c-0.069,0.2-0.106,0.41-0.111,0.622c0,0.736,0.418,1.408,1.078,1.733l2.801-1.538
					c0.039-0.146,0.06-0.295,0.062-0.445c0.003-1.068-0.86-1.938-1.929-1.941l0,0V484.308z M1396.784,483.15
					c-1.304,0-2.359-1.057-2.359-2.359s1.056-2.358,2.359-2.358c1.303,0,2.358,1.056,2.358,2.358
					c-0.004,1.301-1.059,2.353-2.358,2.354V483.15z M1396.784,478.857c-1.068-0.001-1.935,0.864-1.936,1.933
					c0,1.068,0.865,1.935,1.933,1.936c1.068,0,1.935-0.865,1.936-1.934c0,0,0,0,0-0.001c0.002-1.069-0.863-1.938-1.933-1.938l0,0
					V478.857z M1410.596,474.838c-1.303-0.001-2.357-1.057-2.359-2.359c0.003-0.244,0.044-0.486,0.121-0.718
					c0.259-1.276,1.504-2.102,2.781-1.843c1.099,0.223,1.89,1.188,1.891,2.311c-0.003,0.248-0.045,0.495-0.127,0.729
					c-0.225,1.093-1.188,1.876-2.303,1.875L1410.596,474.838z M1410.669,470.295c-0.923,0.002-1.716,0.655-1.896,1.561l-0.006,0.024
					c-0.332,1.012,0.219,2.102,1.23,2.434s2.101-0.218,2.434-1.229c0.024-0.076,0.045-0.154,0.061-0.232
					c0.069-0.201,0.107-0.411,0.11-0.623c0.002-1.069-0.863-1.937-1.932-1.938c-0.001,0-0.001,0-0.002,0V470.295z M1424.797,466.324
					c-1.304,0-2.36-1.057-2.36-2.36c0-1.303,1.057-2.359,2.36-2.359s2.36,1.057,2.36,2.359l0,0c-0.004,1.3-1.058,2.353-2.357,2.355
					L1424.797,466.324z M1424.797,462.031c-1.067,0-1.933,0.866-1.932,1.934c0,1.068,0.866,1.933,1.934,1.933
					c1.067-0.001,1.932-0.866,1.932-1.934c0.002-1.068-0.862-1.936-1.931-1.938L1424.797,462.031z M1395.661,466.324
					c-1.304,0.001-2.36-1.056-2.361-2.359c-0.001-1.303,1.056-2.36,2.359-2.36c1.303-0.001,2.36,1.056,2.36,2.358
					c0,0.001,0,0.001,0,0.001c-0.004,1.301-1.059,2.354-2.358,2.355V466.324z M1395.661,462.031c-1.067,0-1.934,0.865-1.934,1.933
					s0.866,1.934,1.934,1.934s1.933-0.865,1.933-1.934l0,0c0.002-1.068-0.863-1.936-1.932-1.938c-0.001,0-0.001,0-0.001,0V462.031z
					 M1409.473,458.011c-1.24-0.005-2.266-0.97-2.346-2.209l-0.009-0.155l4.311-1.673l0.101,0.145
					c0.723,1.234,0.309,2.821-0.926,3.544c-0.343,0.201-0.729,0.321-1.126,0.349H1409.473z M1407.573,455.928
					c0.15,1.055,1.128,1.787,2.182,1.636c0.811-0.116,1.46-0.731,1.618-1.535c0.068-0.2,0.106-0.41,0.111-0.622
					c-0.001-0.314-0.079-0.623-0.229-0.9L1407.573,455.928z"/>
			</g>
			<g id="element">
				<path id="Path_614" fill="#EDF2F9" d="M1691,210.884c0-0.108,0-0.22,0-0.332c0-22.092-18.349-40-40.98-40
					c-15.114-0.08-29.054,8.144-36.294,21.412c-3.424-2.257-7.438-3.453-11.538-3.439c-11.266,0-20.399,8.79-20.399,19.632
					c0,0.064,0,0.132,0,0.2c-11.622,5.187-19.677,16.469-19.677,29.555c0,18.005,15.25,32.6,34.062,32.6
					c1.471,0,2.94-0.09,4.4-0.272h80.191c0.455-0.053,0.911-0.1,1.367-0.139c1.597-0.01,3.188-0.187,4.749-0.53v-0.147
					c16.3-1.979,28.871-14.493,28.871-29.638C1715.76,225.937,1705.258,214.295,1691,210.884z"/>
				<path id="Path_615" fill="#98BEF7" d="M1413.519,164.149c0-0.071,0-0.146,0-0.22c0-14.661-12.177-26.546-27.2-26.546
					c-10.03-0.053-19.281,5.404-24.085,14.21c-2.272-1.498-4.936-2.292-7.657-2.283c-7.335-0.137-13.394,5.694-13.538,13.029
					c0,0.043,0,0.088,0,0.13c-7.85,3.379-12.969,11.068-13.058,19.614c0,11.948,10.12,21.636,22.6,21.636
					c0.976,0,1.951-0.06,2.92-0.181h53.218c0.3-0.035,0.601-0.067,0.907-0.092c1.06-0.006,2.116-0.125,3.152-0.352V203
					c10.82-1.314,19.159-9.619,19.159-19.669C1429.951,174.139,1422.981,166.413,1413.519,164.149z"/>
				<g id="Group_146">
					<g id="Group_133">
						<path id="Path_616" fill="#F3C04C" d="M1062.647,311.647c-3.755,0-6.8-3.045-6.8-6.8s3.044-6.8,6.8-6.8
							c3.755,0,6.8,3.044,6.8,6.8S1066.403,311.647,1062.647,311.647L1062.647,311.647z M1062.647,300.184
							c-2.576,0-4.665,2.089-4.665,4.665c0,2.577,2.088,4.666,4.665,4.665c2.576,0,4.665-2.088,4.665-4.664
							C1067.309,302.275,1065.222,300.187,1062.647,300.184z"/>
					</g>
					<g id="Group_145">
						<g id="Group_144">
							<g id="Group_138">
								<g id="Group_135">
									<g id="Group_134">
										<path id="Path_617" fill="#EF4923" d="M1089.961,276.185c-0.589,0-1.066-0.477-1.066-1.066l0,0v-4.7
											c-0.003-0.588,0.471-1.069,1.06-1.072c0.589-0.004,1.069,0.47,1.073,1.059c0,0.004,0,0.009,0,0.013v4.7
											C1091.027,275.708,1090.55,276.185,1089.961,276.185z"/>
									</g>
								</g>
								<g id="Group_137">
									<g id="Group_136">
										<path id="Path_618" fill="#EF4923" d="M1089.961,284.414c-0.589,0-1.066-0.477-1.066-1.066l0,0v-4.7
											c-0.003-0.588,0.471-1.069,1.06-1.072c0.589-0.004,1.069,0.47,1.073,1.059c0,0.004,0,0.009,0,0.013v4.7
											C1091.027,283.937,1090.55,284.414,1089.961,284.414z"/>
									</g>
								</g>
							</g>
							<g id="Group_143">
								<g id="Group_140">
									<g id="Group_139">
										<path id="Path_619" fill="#EF4923" d="M1096.561,277.948h-4.224c-0.589,0.002-1.067-0.474-1.069-1.063
											s0.474-1.067,1.063-1.069c0.002,0,0.004,0,0.007,0h4.224c0.589-0.002,1.068,0.474,1.07,1.063
											c0.002,0.588-0.474,1.067-1.063,1.069C1096.566,277.948,1096.563,277.948,1096.561,277.948z"/>
									</g>
								</g>
								<g id="Group_142">
									<g id="Group_141">
										<path id="Path_620" fill="#EF4923" d="M1087.585,277.948h-4.224c-0.589-0.002-1.064-0.481-1.063-1.069
											c0.002-0.586,0.476-1.061,1.063-1.063h4.224c0.588-0.002,1.067,0.474,1.069,1.063c0.002,0.588-0.474,1.067-1.063,1.069
											C1087.59,277.948,1087.587,277.948,1087.585,277.948z"/>
									</g>
								</g>
							</g>
						</g>
					</g>
				</g>
			</g>
		</g>
	</g>
</g>
</svg>
