<?xml version="1.0" encoding="utf-8"?>
<!-- Generator: Adobe Illustrator 16.0.0, SVG Export Plug-In . SVG Version: 6.00 Build 0)  -->
<!DOCTYPE svg PUBLIC "-//W3C//DTD SVG 1.1//EN" "http://www.w3.org/Graphics/SVG/1.1/DTD/svg11.dtd">
<svg version="1.1" id="Layer_1" xmlns="http://www.w3.org/2000/svg" xmlns:xlink="http://www.w3.org/1999/xlink" x="0px" y="0px"
	 width="1600px" height="1200px" viewBox="0 0 1600 1200" enable-background="new 0 0 1600 1200" xml:space="preserve">
<title>Taieri</title>
<desc>Created with Sketch.</desc>
<g id="Background-9" transform="translate(3057 2574)">
	<path id="Path_1119" fill="#E3EEFF" d="M-3451.318-1373.418h1998.957c39.69-85.839,88.184-219.472,95.933-387.794
		c5.585-121.307,10.441-226.809-55.97-279.852c-85.84-68.561-201.462,71.822-355.812,59.968
		c-297.594-22.857-348.375-582.022-659.649-615.673c-295.843-31.983-693.893-103.788-760.641,133.269
		c-7.42,26.352,76.813,554.147,27.692,587.683c-92.706,63.3-195.686-39.785-318.5,6.662
		c-89.47,33.838-172.027,140.439-163.913,259.862C-3636.068-1504.101-3560.027-1410.452-3451.318-1373.418z"/>
</g>
<g id="Plants-12" transform="translate(1297 5011)">
	<path id="Path_910" fill="#AACEF2" d="M-1195.115-4542.182c14.718,42.318,11.948,120.51-15.641,154.547
		s-67.152,82.779-60.716,140.738c6.025,54.23-41.101,84.959-67.908,88.691l-0.437,0.063c-1.586,0.203-3.183,0.311-4.782,0.32
		c0,0-77.729-101.959-18.858-185.662s48.755-85.549,50.589-138.906s12.885-108.549,57.037-126.021
		c43.871-17.371,18.719-55.627,79.767-60.627c0.09,0,0.179-0.014,0.282-0.014l0.9-0.076
		C-1174.881-4669.129-1209.833-4584.502-1195.115-4542.182z"/>
	<path id="Path_911" fill="#FFFFFF" d="M-1175.782-4669.051c-5.91,6.398-11.666,12.92-17.27,19.563
		c-8.013,9.424-15.524,19.256-23.319,28.885c-7.77,9.627-15.64,19.191-22.576,29.4c-3.489,5.064-6.641,10.354-9.434,15.832
		c-2.757,5.484-4.981,11.221-6.643,17.129c-3.411,11.803-4.666,24.123-3.705,36.371c0.833,12.256,3.705,24.32,5.2,36.691
		c1.778,12.439,1.098,25.109-2.004,37.287c-1.606,6.055-3.757,11.949-6.423,17.615c-1.346,2.809-2.538,5.693-4.09,8.41
		c-1.487,2.732-2.886,5.527-4.577,8.154c-6.41,10.701-14.166,20.525-21.922,30.141c-7.692,9.654-15.295,19.41-20.7,30.436l-2,4.127
		c-0.7,1.373-1.179,2.834-1.769,4.244l-1.7,4.27l-1.4,4.371c-0.437,1.475-0.962,2.91-1.347,4.4l-1.077,4.475
		c-0.346,1.5-0.731,2.986-1.064,4.486l-0.82,4.525c-1.019,6.045-1.521,12.166-1.5,18.295c0.013,6.129,0.614,12.256,1.218,18.424
		c2.923,24.666,1.667,49.754-2.359,74.189c-2.78,16.678-6.896,33.107-12.307,49.127l-0.437,0.064
		c5.163-16.125,9.013-32.639,11.514-49.385c3.756-24.422,4.781-49.279,1.641-73.805c-0.667-6.141-1.333-12.346-1.4-18.6
		c-0.063-6.254,0.422-12.5,1.449-18.666l0.821-4.602c0.333-1.523,0.7-3.037,1.063-4.563l1.078-4.551
		c0.384-1.514,0.91-2.988,1.358-4.488l1.41-4.461l1.719-4.359c0.6-1.449,1.088-2.936,1.794-4.332l2.038-4.23
		c5.487-11.27,13.191-21.219,20.871-30.91c7.743-9.666,15.346-19.371,21.64-29.936c1.667-2.576,3.051-5.318,4.526-8.012
		c1.538-2.668,2.699-5.514,4.051-8.27c2.622-5.531,4.741-11.289,6.333-17.199c3.068-11.875,3.771-24.238,2.063-36.385
		c-1.423-12.199-4.281-24.346-5.09-36.82c-0.451-6.24-0.356-12.506,0.282-18.73c0.68-6.221,1.933-12.367,3.743-18.357
		c1.752-5.998,4.07-11.814,6.924-17.371c2.882-5.523,6.122-10.85,9.7-15.949c7.1-10.199,15.051-19.729,22.935-29.268
		c7.948-9.475,15.629-19.199,23.821-28.5c5.678-6.512,11.498-12.893,17.46-19.141
		C-1175.974-4669.039-1175.885-4669.051-1175.782-4669.051z"/>
	<path id="Path_912" fill="#FD9ECC" d="M-871.329-4691.191c-1.5,1.154-97.536,75.074-103.021,148.086
		c-5.514,73.588-27.59,122.344-72.666,160.061s-63.473,136.15-157.3,160.059c-93.827,23.91-140.278,65.166-140.278,65.166
		s-0.255-1.424-0.538-4.037c-0.026-0.297-0.064-0.592-0.101-0.91c-1.899-19.348-3.5-91.152,69.165-139.318
		c84.64-56.113,142.586-85.549,155.47-160.982c12.885-75.434,35.871-120.51,80.023-143.51c44.152-22.998,41.4-40.473,75.434-57.947
		c29.422-15.1,78.075-24.023,90.741-26.178c0.462-0.078,0.885-0.141,1.244-0.191
		C-872.072-4691.088-871.444-4691.191-871.329-4691.191z"/>
	<path id="Path_913" fill="#FFFFFF" d="M-873.162-4690.896c-53.512,22.666-101.64,57.574-140.817,100.189
		c-10.998,12.48-20.805,25.963-29.294,40.268c-8.577,14.234-15.054,29.633-19.229,45.719c-2.167,8.023-4.077,16.152-6.167,24.256
		c-2.115,8.09-4.41,16.141-7.038,24.1c-1.257,3.986-2.755,7.91-4.115,11.871c-1.436,3.922-3,7.807-4.5,11.717
		c-3.191,7.732-6.487,15.438-9.884,23.051c-3.423,7.615-6.82,15.258-10.41,22.809c-1.756,3.795-3.652,7.523-5.474,11.281
		c-1.949,3.719-3.782,7.475-5.847,11.129c-3.976,7.385-8.349,14.549-13.1,21.461c-4.723,6.955-9.971,13.539-15.7,19.691
		l-2.154,2.295c-0.704,0.781-1.448,1.539-2.218,2.244l-4.551,4.371c-1.551,1.41-3.179,2.744-4.769,4.127
		c-0.793,0.682-1.577,1.373-2.4,2.039l-2.5,1.91c-6.641,5.174-13.713,9.768-21.141,13.73c-7.469,3.9-15.316,7.027-23.422,9.334
		c-8.063,2.346-16.308,3.947-24.435,5.717c-8.139,1.629-16.127,3.934-23.884,6.885c-7.709,3.059-15.078,6.914-21.987,11.5
		c-13.831,9.264-25.937,20.875-35.769,34.309c-9.806,13.484-17.909,28.129-24.127,43.6c-2.589,6.385-4.936,12.863-7.038,19.434
		c-0.026-0.295-0.064-0.59-0.101-0.908c1.961-6.32,4.142-12.59,6.564-18.758c6.054-15.617,14.011-30.43,23.691-44.1
		c9.827-13.648,21.974-25.469,35.886-34.922c6.976-4.695,14.421-8.652,22.216-11.807c7.828-3.053,15.898-5.441,24.128-7.141
		c8.154-1.846,16.319-3.488,24.268-5.859c7.949-2.309,15.649-5.4,22.987-9.23c7.297-3.926,14.245-8.469,20.77-13.576l2.461-1.885
		c0.808-0.654,1.576-1.346,2.358-2.027c1.564-1.357,3.167-2.666,4.692-4.076l4.474-4.309c0.758-0.705,1.474-1.449,2.167-2.217
		l2.128-2.27c5.638-6.08,10.803-12.58,15.448-19.447c4.685-6.861,8.994-13.969,12.91-21.295c2.039-3.615,3.872-7.359,5.782-11.051
		c1.82-3.756,3.691-7.461,5.423-11.256c3.563-7.525,6.936-15.152,10.333-22.77c3.423-7.627,6.723-15.277,9.899-22.947
		c1.5-3.885,3.065-7.744,4.514-11.641c1.358-3.938,2.858-7.82,4.1-11.781c2.628-7.9,4.923-15.885,7.051-23.936
		c2.101-8.064,4.038-16.18,6.23-24.268c4.265-16.273,10.858-31.844,19.578-46.23c4.28-7.219,8.946-14.191,13.883-20.961
		c4.962-6.744,10.282-13.23,15.846-19.486c11.202-12.451,23.34-24.027,36.307-34.627c6.41-5.348,12.949-10.551,19.615-15.615
		c3.359-2.488,6.68-5.027,10.141-7.385l5.128-3.59l5.244-3.449c20.418-13.352,42.052-24.742,64.612-34.025
		C-873.944-4690.781-873.525-4690.846-873.162-4690.896z"/>
	<path id="Path_914" fill="#AACEF2" d="M-922.839-4346.252c0,0-0.615,0.564-1.744,1.641c-0.192,0.18-0.409,0.385-0.642,0.602
		c-9.742,9.295-46.755,45.717-61.074,75.945c-16.564,34.961-48.756,75.436-108.549,75.436s-124.188,26.678-125.111,63.473
		c-0.744,29.871-80.9,52.869-112.279,11.359c-0.114-0.154-0.23-0.32-0.346-0.475c-7.077-9.578-11.59-22.539-12.013-39.551
		c0,0,55.651-90,108.087-88.164c52.435,1.836,71.742-6.436,97.51-23.91c25.768-17.473,50.589-26.678,80.947-29.434
		c30.357-2.756,51.511-39.564,85.549-41.4C-938.466-4342.568-922.839-4346.252-922.839-4346.252z"/>
	<path id="Path_915" fill="#FFFFFF" d="M-902.867-4346.342c-7.502,0.199-14.977,0.979-22.358,2.334
		c0.232-0.219,0.449-0.424,0.642-0.602C-917.402-4345.756-910.14-4346.334-902.867-4346.342z"/>
	<path id="Path_916" fill="#FFFFFF" d="M-1332.239-4117.797c-4.615,7.385-8.871,15.012-12.923,22.73
		c3.899-7.885,8.024-15.666,12.577-23.201C-1332.469-4118.117-1332.353-4117.951-1332.239-4117.797z"/>
	<path id="Path_917" fill="#FFFFFF" d="M-924.583-4344.611c-0.193,0.18-0.409,0.385-0.642,0.6
		c-3.513,0.668-6.986,1.488-10.423,2.463c-10.656,2.965-20.695,7.814-29.641,14.32c-1.09,0.859-2.256,1.6-3.282,2.512l-3.141,2.668
		l-2.937,2.885c-0.985,0.949-1.834,2.039-2.756,3.051c-3.511,4.234-6.63,8.779-9.319,13.578c-2.68,4.902-5.669,9.629-8.948,14.154
		c-3.422,4.496-7.527,8.428-12.166,11.652c-4.644,3.197-9.648,5.836-14.909,7.859c-5.285,1.916-10.755,3.279-16.321,4.064
		c-5.513,0.871-11,1.5-16.399,2.537c-5.393,1.02-10.698,2.451-15.871,4.281l-3.859,1.424l-3.782,1.627
		c-2.524,1.064-4.985,2.359-7.474,3.514c-4.9,2.514-9.77,5.1-14.41,8.064c-4.667,2.922-9.166,6.09-13.577,9.422
		c-4.411,3.334-8.729,6.795-13.217,10.102c-4.487,3.305-9.14,6.422-13.947,9.295c-4.805,2.852-9.761,5.441-14.847,7.756
		c-10.125,4.795-20.823,8.271-31.832,10.346c-11.038,2-22.229,2.295-33.2,3.205c-5.489,0.426-10.951,1.158-16.359,2.191l-4.025,0.9
		c-0.667,0.154-1.347,0.295-2,0.461l-1.987,0.576l-3.961,1.143c-1.32,0.371-2.59,0.908-3.884,1.346
		c-10.392,3.699-20.247,8.76-29.308,15.051c-9.028,6.361-17.356,13.662-24.845,21.781c-7.525,8.115-14.393,16.818-20.538,26.023
		c-1.308,1.975-2.589,3.963-3.846,5.963c-0.114-0.154-0.231-0.322-0.346-0.475c1.166-1.975,2.384-3.924,3.628-5.859
		c6.016-9.352,12.764-18.213,20.179-26.5c7.465-8.283,15.795-15.744,24.846-22.256c9.123-6.477,19.063-11.713,29.563-15.576
		c1.308-0.461,2.6-1.012,3.936-1.41l4.027-1.199l2.011-0.6c0.667-0.193,1.359-0.334,2.039-0.5l4.09-0.949
		c5.48-1.088,11.02-1.857,16.589-2.309c11.101-0.961,22.153-1.281,32.974-3.299c10.804-2.076,21.299-5.523,31.229-10.256
		c4.997-2.309,9.867-4.881,14.59-7.705c4.716-2.834,9.269-5.91,13.7-9.191c4.432-3.283,8.782-6.719,13.23-10.064
		c4.447-3.344,9.051-6.539,13.795-9.486c4.718-3,9.666-5.6,14.641-8.129c2.526-1.166,5-2.461,7.589-3.525l3.859-1.654l3.948-1.447
		c5.29-1.855,10.716-3.295,16.229-4.309c5.5-1.039,11.038-1.654,16.487-2.5c5.422-0.746,10.754-2.047,15.91-3.885
		c5.117-1.918,9.996-4.422,14.537-7.461c4.508-3.08,8.513-6.838,11.871-11.141c3.275-4.432,6.268-9.064,8.961-13.873
		c2.786-4.846,6.004-9.432,9.615-13.699c0.962-1.025,1.833-2.129,2.859-3.078l3.038-2.908l3.23-2.682
		c1.052-0.922,2.231-1.678,3.347-2.512c9.149-6.418,19.375-11.146,30.192-13.961
		C-932.132-4343.191-928.375-4343.996-924.583-4344.611z"/>
</g>
<g id="Plants-10" transform="translate(8235 5019)">
	<path id="Path_155" fill="#AACEF2" d="M-6652.792-4223.107c0,0,63.59-97.225,4.91-169.033
		c-58.678-71.809-49.653-74.133-54.799-122.232c-5.146-48.102-18.733-97.264-59.782-110.174s-20.299-49.512-77.129-49.58
		c0,0,37.123,74.199,26.586,113.408s-2.934,109.693,24.231,138.65c27.165,28.959,66.101,70.436,64.069,123.234
		S-6675.655-4221.455-6652.792-4223.107z"/>
	<path id="Path_156" fill="#FFFFFF" d="M-6659.53-4198.48c3.953-21.854,4.848-44.316,1.66-66.254
		c-1.551-10.965-4.145-21.754-7.744-32.227l-1.35-3.92c-0.445-1.307-1.031-2.563-1.539-3.848l-1.578-3.832l-0.789-1.916
		c-0.268-0.637-0.594-1.248-0.889-1.871l-3.623-7.453c-1.244-2.443-2.625-4.814-4.141-7.1c-1.52-2.271-3.199-4.48-4.848-6.721
		c-1.648-2.242-3.292-4.49-4.906-6.76c-3.234-4.533-6.353-9.148-9.463-13.754c-6.222-9.209-12.418-18.438-18.591-27.686
		c-6.138-9.273-12.217-18.594-18.044-28.086c-5.908-9.469-11.313-19.244-16.19-29.283l-1.77-3.799
		c-0.587-1.27-1.095-2.578-1.645-3.863c-0.528-1.301-1.1-2.572-1.6-3.885l-1.453-3.945l-0.725-1.971l-0.636-2.006l-1.268-4.01
		c-0.4-1.346-0.725-2.711-1.09-4.064c-0.344-1.359-0.748-2.699-1-4.084c-2.568-10.955-3.558-22.219-2.938-33.451
		c0.412-5.604,1.247-11.17,2.5-16.646c1.2-5.469,2.715-10.82,3.816-16.207c0.556-2.68,0.972-5.387,1.244-8.109
		c0.235-2.713,0.277-5.438,0.126-8.154c-0.175-2.719-0.538-5.424-1.087-8.092c-0.584-2.674-1.321-5.313-2.208-7.9
		c-3.425-10.465-9.4-19.879-15.72-28.959c-6.354-9.08-13.166-17.863-19.95-26.658c-6.801-8.787-13.571-17.6-20.475-26.307
		c-6.902-8.705-13.938-17.307-21.073-25.828c7.354,8.334,14.56,16.795,21.62,25.387c7.065,8.586,13.991,17.275,20.951,25.943
		c3.46,4.352,6.894,8.725,10.3,13.123c3.4,4.4,6.762,8.838,10,13.373c3.239,4.535,6.37,9.16,9.19,14
		c2.856,4.842,5.23,9.953,7.09,15.26c0.943,2.658,1.731,5.369,2.363,8.117c0.602,2.768,1.01,5.574,1.222,8.4
		c0.181,2.832,0.15,5.672-0.091,8.5c-0.27,2.807-0.688,5.6-1.25,8.363c-1.108,5.508-2.608,10.863-3.765,16.256
		c-1.208,5.365-2.008,10.814-2.392,16.301c-0.563,10.996,0.446,22.018,3,32.729c2.545,10.729,6.271,21.141,11.108,31.049
		c4.803,9.973,10.128,19.686,15.955,29.1c5.766,9.471,11.8,18.791,17.893,28.074c6.119,9.268,12.28,18.512,18.482,27.736
		c3.087,4.619,6.193,9.209,9.372,13.756c1.581,2.277,3.185,4.537,4.812,6.783c1.617,2.254,3.281,4.488,4.828,6.852
		c1.527,2.363,2.92,4.813,4.17,7.334l3.584,7.578c0.289,0.637,0.613,1.256,0.875,1.9l0.779,1.945l1.553,3.893
		c0.5,1.299,1.076,2.578,1.512,3.904l1.32,3.977c3.521,10.598,6.016,21.51,7.445,32.586c1.387,11.063,1.809,22.225,1.262,33.361
		l-0.219,4.168c-0.074,1.389-0.227,2.773-0.336,4.16c-0.207,2.775-0.545,5.537-0.877,8.301
		C-6657.491-4209.408-6658.392-4203.92-6659.53-4198.48z"/>
	<path id="Path_157" fill="#FD9ECC" d="M-6555.245-4109.67c0,0,6.02-80.98-75.637-123.391
		c-81.654-42.412-136.704-63.355-155.569-130.082c-18.865-66.725-43.926-105.123-85.924-121.594
		c-41.998-16.469-41.194-32.484-73.544-44.955s-87.109-15-87.109-15s95.029,57.75,107.088,123.525
		c12.058,65.775,36.643,107.578,80.887,137.221s70.3,116.559,157.139,129.076C-6601.077-4142.354-6555.245-4109.67-6555.245-4109.67
		z"/>
	<path id="Path_158" fill="#FFFFFF" d="M-6552.026-4098.414c-4.625-13.635-10.793-26.695-18.387-38.928
		c-7.613-12.201-16.898-23.277-27.578-32.91c-2.736-2.318-5.412-4.711-8.268-6.881c-2.838-2.191-5.764-4.262-8.775-6.209
		c-6.072-3.828-12.348-7.324-18.801-10.471l-38.613-19.305c-12.863-6.449-25.724-12.914-38.499-19.555
		c-6.395-3.307-12.756-6.68-19.086-10.117c-6.321-3.453-12.609-6.982-18.72-10.844c-12.095-7.922-23.377-17.02-33.684-27.158
		c-1.329-1.227-2.534-2.572-3.8-3.857l-3.752-3.908l-3.606-4.039c-1.2-1.346-2.416-2.684-3.549-4.088
		c-2.307-2.777-4.639-5.533-6.814-8.414c-1.101-1.43-2.232-2.836-3.301-4.289l-3.191-4.371
		c-8.469-11.689-15.981-24.02-23.278-36.434c-7.2-12.451-14.554-24.883-20.575-38.021c-3.052-6.543-5.7-13.273-8.106-20.074
		c-2.407-6.803-4.486-13.701-7-20.4c-5.067-13.418-12.219-25.951-21.189-37.143c-8.903-11.262-19.198-21.352-30.637-30.027
		c-11.468-8.658-23.733-16.205-36.632-22.539l-4.801-2.439l-4.912-2.217l-4.918-2.199c-1.644-0.725-3.264-1.508-4.95-2.131
		l-10.035-3.947l-2.511-0.982l-2.551-0.875l-5.1-1.75l-5.1-1.752c-0.853-0.287-1.7-0.592-2.555-0.863l-2.584-0.768l-10.344-3.072
		c-3.432-1.086-6.943-1.877-10.423-2.787l-10.46-2.66l10.486,2.555c3.49,0.875,7.012,1.633,10.455,2.686l10.379,2.969l2.601,0.742
		c0.86,0.264,1.71,0.561,2.565,0.84l5.123,1.699l5.125,1.701l2.563,0.852l2.524,0.957l10.092,3.854
		c1.699,0.607,3.328,1.375,4.982,2.084l4.952,2.16l4.948,2.172l4.843,2.4c12.995,6.279,25.358,13.789,36.923,22.424
		c11.571,8.674,21.997,18.777,31.028,30.072c9.143,11.248,16.42,23.893,21.554,37.447c2.552,6.77,4.638,13.66,7.048,20.418
		c2.411,6.758,5.046,13.43,8.09,19.924c6,13.029,13.348,25.398,20.571,37.842c7.301,12.377,14.817,24.643,23.252,36.256l3.166,4.352
		c1.062,1.445,2.186,2.844,3.274,4.268c2.157,2.867,4.468,5.609,6.754,8.371c1.123,1.4,2.325,2.729,3.518,4.066l3.573,4.02
		l3.717,3.885c1.254,1.279,2.449,2.619,3.766,3.836c10.204,10.076,21.378,19.121,33.359,27c6.05,3.84,12.312,7.369,18.61,10.826
		c6.299,3.455,12.655,6.822,19.038,10.137c12.76,6.641,25.582,13.172,38.4,19.701l38.506,19.521
		c6.469,3.199,12.756,6.748,18.836,10.633c3.023,1.975,5.959,4.074,8.807,6.299c2.857,2.205,5.549,4.615,8.273,6.98
		c10.631,9.777,19.842,20.994,27.367,33.322C-6562.562-4125.248-6556.517-4112.111-6552.026-4098.414z"/>
	<path id="Path_159" fill="#AACEF2" d="M-6719.172-4137.67c-16.837-27.564-53.644-52.961-107.686-49.057
		s-85.784-30.568-103.034-61.074s-62.469-66.523-62.469-66.523s0.534,0.084,1.616,0.213c0.21,0.031,0.438,0.057,0.695,0.086
		c5.182,0.605,19.176,1.881,42.944,1.449c30.879-0.564,52.4,31.313,80.023,31.822s50.663,7.193,75.086,21.309
		c24.423,14.113,42.416,20.338,89.684,15.24c47.266-5.096,103.449,72.617,103.449,72.617c0.129,2.785,0.139,5.457,0.027,8.014
		c0,0.076-0.002,0.154-0.008,0.23C-6602.214-4089.879-6702.392-4110.191-6719.172-4137.67z"/>
	<path id="Path_160" fill="#FFFFFF" d="M-6598.851-4163.342c-13.484-1.76-26.887-4.119-40.141-7.156
		c-18.336-4.211-36.34-9.744-53.875-16.557c-8.771-3.389-17.389-7.182-25.9-11.148c-8.512-3.949-17.015-7.906-25.73-11.301
		c-8.712-3.428-17.601-6.377-26.614-8.945c-8.978-2.627-18.086-4.787-27.287-6.473c-4.611-0.775-9.24-1.383-13.893-1.859
		c-4.653-0.479-9.373-0.908-14.036-1.777c-4.651-0.865-9.237-2.045-13.728-3.535c-2.257-0.713-4.465-1.535-6.687-2.314l-6.578-2.576
		c-8.723-3.611-17.107-7.992-25.053-13.088c-7.955-5.057-15.489-10.672-23.188-16.029c-15.361-10.76-31.427-20.475-48.09-29.082
		c-13.374-6.979-27.074-13.289-41.1-18.926c0.209,0.031,0.438,0.057,0.695,0.084c13.875,5.344,27.473,11.365,40.795,18.064
		c16.787,8.479,32.982,18.082,48.477,28.742l11.574,8.021l5.791,3.986c1.95,1.293,3.893,2.602,5.867,3.848
		c7.885,5.02,16.198,9.332,24.844,12.885l6.538,2.539c2.206,0.768,4.399,1.58,6.62,2.27c4.428,1.455,8.948,2.609,13.531,3.451
		c4.569,0.832,9.221,1.246,13.9,1.717c4.68,0.473,9.365,1.059,14.021,1.84c9.262,1.719,18.428,3.918,27.461,6.588
		c9.034,2.607,17.974,5.6,26.725,9.074c8.772,3.443,17.3,7.439,25.79,11.414s17.052,7.813,25.76,11.275
		c17.424,6.932,35.324,12.605,53.561,16.977c13.182,3.227,26.5,5.813,39.959,7.762
		C-6598.839-4163.496-6598.843-4163.418-6598.851-4163.342z"/>
</g>
</svg>
